{
	"variables": [],
	"info": {
		"name": "AngularBook",
		"_postman_id": "dd2b5385-0bdb-c577-f81f-068eb2cdd6fa",
		"description": "",
		"schema": "https://schema.getpostman.com/json/collection/v2.0.0/collection.json"
	},
	"item": [
		{
			"name": "Comments Action (Token needed)",
			"description": "",
			"item": [
				{
					"name": "ADD Comment on post by POST_ID",
					"request": {
						"url": "http://localhost:3000/comments/ID_POST/add",
						"method": "POST",
						"header": [
							{
								"key": "token",
								"value": "",
								"description": ""
							},
							{
								"key": "Content-Type",
								"value": "application/x-www-form-urlencoded",
								"description": ""
							}
						],
						"body": {
							"mode": "urlencoded",
							"urlencoded": [
								{
									"key": "content",
									"value": "",
									"type": "text",
									"enabled": true,
									"warning": ""
								}
							]
						},
						"description": ""
					},
					"response": []
				},
				{
					"name": "DELETE a comment by POST_ID & COMMENT_ID",
					"request": {
						"url": "http://localhost:3000/comments/remove/ID_POST/ID_COMMENT",
						"method": "DELETE",
						"header": [
							{
								"key": "token",
								"value": "",
								"description": ""
							}
						],
						"body": {
							"mode": "raw",
							"raw": ""
						},
						"description": ""
					},
					"response": []
				}
			]
		},
		{
			"name": "Debug",
			"description": "",
			"item": [
				{
					"name": "GET ALL Users",
					"request": {
						"url": "http://localhost:3000/debug/users",
						"method": "GET",
						"header": [],
						"body": {
							"mode": "raw",
							"raw": ""
						},
						"description": ""
					},
					"response": []
				},
				{
					"name": "GET ALL Posts",
					"request": {
						"url": "http://localhost:3000/debug/posts",
						"method": "GET",
						"header": [],
						"body": {
							"mode": "raw",
							"raw": ""
						},
						"description": ""
					},
					"response": []
				},
				{
					"name": "GET ALL Comments",
					"request": {
						"url": "http://localhost:3000/debug/comments",
						"method": "GET",
						"header": [],
						"body": {
							"mode": "raw",
							"raw": ""
						},
						"description": ""
					},
					"response": []
				},
				{
					"name": "GET ALL Messages",
					"request": {
						"url": "http://localhost:3000/debug/messages",
						"method": "GET",
						"header": [],
						"body": {
							"mode": "raw",
							"raw": ""
						},
						"description": ""
					},
					"response": []
				},
				{
					"name": "GET geo info (latitude - longitude needed)",
					"request": {
						"url": "http://localhost:3000/debug/geo",
						"method": "GET",
						"header": [
							{
								"key": "Latitude",
								"value": "",
								"description": ""
							},
							{
								"key": "Longitude",
								"value": "",
								"description": ""
							}
						],
						"body": {
							"mode": "raw",
							"raw": ""
						},
						"description": ""
					},
					"response": []
				},
				{
					"name": "DELETE ALL Users",
					"request": {
						"url": "http://localhost:3000/debug/users",
						"method": "DELETE",
						"header": [],
						"body": {
							"mode": "raw",
							"raw": ""
						},
						"description": ""
					},
					"response": []
				},
				{
					"name": "DELETE ALL Posts",
					"request": {
						"url": "http://localhost:3000/debug/posts",
						"method": "DELETE",
						"header": [],
						"body": {
							"mode": "raw",
							"raw": ""
						},
						"description": ""
					},
					"response": []
				},
				{
					"name": "DELETE ALL Posts votes",
					"request": {
						"url": "http://localhost:3000/debug/posts/votes",
						"method": "DELETE",
						"header": [],
						"body": {
							"mode": "raw",
							"raw": ""
						},
						"description": ""
					},
					"response": []
				},
				{
					"name": "DELETE ALL Comments",
					"request": {
						"url": "http://localhost:3000/debug/comments",
						"method": "DELETE",
						"header": [],
						"body": {
							"mode": "raw",
							"raw": ""
						},
						"description": ""
					},
					"response": []
				},
				{
					"name": "DELETE ALL Friends Relations",
					"request": {
						"url": "http://localhost:3000/debug/friends",
						"method": "DELETE",
						"header": [],
						"body": {
							"mode": "raw",
							"raw": ""
						},
						"description": ""
					},
					"response": []
				},
				{
					"name": "DELETE ALL Messages",
					"request": {
						"url": "http://localhost:3000/debug/messages",
						"method": "DELETE",
						"header": [],
						"body": {
							"mode": "raw",
							"raw": ""
						},
						"description": ""
					},
					"response": []
				},
				{
					"name": "POST upload file",
					"request": {
						"url": "http://localhost:3000/debug/upload",
						"method": "POST",
						"header": [],
						"body": {
							"mode": "formdata",
							"formdata": [
								{
									"key": "debug",
									"value": "",
									"type": "file",
									"enabled": true
								}
							]
						},
						"description": "POST upload file"
					},
					"response": []
				},
				{
					"name": "GET ALL images",
					"request": {
						"url": "http://localhost:3000/debug/images",
						"method": "GET",
						"header": [],
						"body": {},
						"description": ""
					},
					"response": []
				},
				{
					"name": "DELETE ALL Images",
					"request": {
						"url": "http://localhost:3000/debug/images",
						"method": "DELETE",
						"header": [],
						"body": {},
						"description": ""
					},
					"response": []
				},
				{
					"name": "GET ALL Messages",
					"request": {
						"url": "http://localhost:3000/debug/messages",
						"method": "GET",
						"header": [],
						"body": {},
						"description": ""
					},
					"response": []
				},
				{
					"name": "DELETE ALL Messages",
					"request": {
						"url": "http://localhost:3000/debug/messages",
						"method": "DELETE",
						"header": [],
						"body": {},
						"description": ""
					},
					"response": []
				}
			]
		},
		{
			"name": "Files Action (token needed)",
			"description": "",
			"item": [
				{
					"name": "GET file",
					"request": {
						"url": "http://localhost:3000/files/FOLDER_NAME/FILE_NAME",
						"method": "GET",
						"header": [
							{
								"key": "token",
								"value": "",
								"description": ""
							}
						],
						"body": {},
						"description": ""
					},
					"response": []
				}
			]
		},
		{
			"name": "Friends Action (Token needed)",
			"description": "",
			"item": [
				{
					"name": "SEND Friend request by USER_ID",
					"request": {
						"url": "http://localhost:3000/friends/add/ID_USER",
						"method": "POST",
						"header": [
							{
								"key": "token",
								"value": "eyJhbGciOiJIUzI1NiIsInR5cCI6IkpXVCJ9.eyJfaWQiOiI1ODUwMGM4NDEwNzYwOTE4YjQ3OTI0ZTUiLCJ1c2VybmFtZSI6InRlc3QiLCJwYXNzd29yZCI6bnVsbCwiaWF0IjoxNDgxODMyNDcyLCJleHAiOjE0ODE5MTg4NzJ9.ye9dpcH8JVeZuNYLJGWCP0kZWQ8OMN7iyXRosNCsA8Q",
								"description": ""
							}
						],
						"body": {
							"mode": "raw",
							"raw": ""
						},
						"description": ""
					},
					"response": []
				},
				{
					"name": "ACCEPT Friend request by USER_ID",
					"request": {
						"url": "http://localhost:3000/friends/accept/ID_USER",
						"method": "POST",
						"header": [
							{
								"key": "token",
								"value": "eyJhbGciOiJIUzI1NiIsInR5cCI6IkpXVCJ9.eyJfaWQiOiI1ODUwMGM4NDEwNzYwOTE4YjQ3OTI0ZTUiLCJ1c2VybmFtZSI6InRlc3QiLCJwYXNzd29yZCI6bnVsbCwiaWF0IjoxNDgxODMyNDcyLCJleHAiOjE0ODE5MTg4NzJ9.ye9dpcH8JVeZuNYLJGWCP0kZWQ8OMN7iyXRosNCsA8Q",
								"description": ""
							}
						],
						"body": {
							"mode": "raw",
							"raw": ""
						},
						"description": ""
					},
					"response": []
				},
				{
					"name": "DENY Friend request by USER_ID",
					"request": {
						"url": "http://localhost:3000/friends/refuse/ID_USER",
						"method": "POST",
						"header": [
							{
								"key": "token",
								"value": "eyJhbGciOiJIUzI1NiIsInR5cCI6IkpXVCJ9.eyJfaWQiOiI1ODUwMGM4NDEwNzYwOTE4YjQ3OTI0ZTUiLCJ1c2VybmFtZSI6InRlc3QiLCJwYXNzd29yZCI6bnVsbCwiaWF0IjoxNDgxODI4NTkwLCJleHAiOjE0ODE5MTQ5OTB9.nwzFIPRzvBWn7aUi5gygUF_VCfGmdUhM0mEfeIOQ4fo",
								"description": ""
							}
						],
						"body": {
							"mode": "raw",
							"raw": ""
						},
						"description": ""
					},
					"response": []
				},
				{
					"name": "Cancel Friend request",
					"request": {
						"url": "http://localhost:3000/friends/cancel/ID_USER",
						"method": "DELETE",
						"header": [
							{
								"key": "token",
								"value": "",
								"description": ""
							}
						],
						"body": {
							"mode": "raw",
							"raw": ""
						},
						"description": ""
					},
					"response": []
				},
				{
					"name": "Remove friend",
					"request": {
						"url": "http://localhost:3000/friends/remove/ID_USER",
						"method": "DELETE",
						"header": [
							{
								"key": "token",
								"value": "",
								"description": ""
							}
						],
						"body": {
							"mode": "raw",
							"raw": ""
						},
						"description": ""
					},
					"response": []
				}
			]
		},
		{
			"name": "Login/Register Action",
			"description": "",
			"item": [
				{
					"name": "Login",
					"request": {
						"url": "http://localhost:3000/users/login",
						"method": "POST",
						"header": [
							{
								"key": "Content-Type",
								"value": "application/x-www-form-urlencoded",
								"description": ""
							}
						],
						"body": {
							"mode": "urlencoded",
							"urlencoded": [
								{
									"key": "username",
									"value": "test",
									"type": "text",
									"enabled": true,
									"warning": ""
								},
								{
									"key": "password",
									"value": "test",
									"type": "text",
									"enabled": true,
									"warning": ""
								}
							]
						},
						"description": ""
					},
					"response": []
				},
				{
					"name": "Register",
					"request": {
						"url": "http://localhost:3000/users/register",
						"method": "POST",
						"header": [
							{
								"key": "Content-Type",
								"value": "application/x-www-form-urlencoded",
								"description": ""
							}
						],
						"body": {
							"mode": "urlencoded",
							"urlencoded": [
								{
									"key": "username",
									"value": "",
									"type": "text",
									"enabled": true,
									"warning": ""
								},
								{
									"key": "password",
									"value": "",
									"type": "text",
									"enabled": true,
									"warning": ""
								},
								{
									"key": "name",
									"value": "",
									"type": "text",
									"enabled": true,
									"warning": ""
								},
								{
									"key": "firstname",
									"value": "",
									"type": "text",
									"enabled": true,
									"warning": ""
								},
								{
									"key": "tel",
									"value": "",
									"type": "text",
									"enabled": false,
									"warning": ""
								}
							]
						},
						"description": ""
					},
					"response": []
				}
			]
		},
		{
			"name": "Messages Action",
			"description": "",
			"item": [
				{
					"name": "POST send private message",
					"request": {
						"url": "http://localhost:3000/messages/ID_USER/send",
						"method": "POST",
						"header": [
							{
								"key": "token",
								"value": "",
								"description": ""
							}
						],
						"body": {
							"mode": "formdata",
							"formdata": [
								{
									"key": "content",
									"value": "",
									"type": "text",
									"enabled": true
								}
							]
						},
						"description": ""
					},
					"response": []
				},
				{
					"name": "GET private messages from one user",
					"request": {
						"url": "http://localhost:3000/messages/ID_USER/get",
						"method": "GET",
						"header": [
							{
								"key": "token",
								"value": "",
								"description": ""
							}
						],
						"body": {},
						"description": ""
					},
					"response": []
				}
			]
		},
		{
			"name": "TimeLine (Token needed)",
			"description": "",
			"item": [
				{
					"name": "GET Friend's posts sort by Date",
					"request": {
						"url": "http://localhost:3000/timeline/",
						"method": "GET",
						"header": [
							{
								"key": "token",
								"value": "",
								"description": ""
							},
							{
								"key": "start",
								"value": "",
								"description": ""
							},
							{
								"key": "limit",
								"value": "",
								"description": ""
							}
						],
						"body": {
							"mode": "raw",
							"raw": ""
						},
						"description": ""
					},
					"response": []
				}
			]
		},
		{
			"name": "Tweet/Post Action (Token needed)",
			"description": "",
			"item": [
				{
					"name": "ADD Post",
					"request": {
						"url": "http://localhost:3000/posts/add",
						"method": "POST",
						"header": [
							{
								"key": "token",
								"value": "",
								"description": ""
							},
							{
								"key": "latitude",
								"value": "",
								"description": ""
							},
							{
								"key": "longitude",
								"value": "",
								"description": ""
							}
						],
						"body": {
							"mode": "formdata",
							"formdata": [
								{
									"key": "content",
									"value": "",
									"type": "text",
									"enabled": true
								},
								{
									"key": "post",
									"value": "",
									"type": "file",
									"enabled": true
								},
								{
									"key": "",
									"value": "",
									"type": "text",
									"enabled": false
								},
								{
									"key": "",
									"value": "",
									"type": "text",
									"enabled": false
								}
							]
						},
						"description": ""
					},
					"response": []
				},
				{
					"name": "GET Post by ID",
					"request": {
						"url": "http://localhost:3000/posts/post/ID_POST",
						"method": "GET",
						"header": [
							{
								"key": "token",
								"value": "",
								"description": ""
							}
						],
						"body": {
							"mode": "raw",
							"raw": ""
						},
						"description": ""
					},
					"response": []
				},
				{
					"name": "GET ALL User's posts by USER_ID",
					"request": {
						"url": "http://localhost:3000/posts/ID_USER/posts",
						"method": "GET",
						"header": [
							{
								"key": "token",
								"value": "",
								"description": ""
							}
						],
						"body": {
							"mode": "raw",
							"raw": ""
						},
						"description": ""
					},
					"response": []
				},
				{
					"name": "DELETE Post by ID",
					"request": {
						"url": "http://localhost:3000/posts/remove/ID_POST",
						"method": "DELETE",
						"header": [
							{
								"key": "token",
								"value": "",
								"description": ""
							}
						],
						"body": {
							"mode": "raw",
							"raw": ""
						},
						"description": ""
					},
					"response": []
				},
				{
					"name": "UPVOTE a post by ID",
					"request": {
						"url": "http://localhost:3000/posts/ID_POST/upvote",
						"method": "PUT",
						"header": [
							{
								"key": "token",
								"value": "",
								"description": ""
							}
						],
						"body": {
							"mode": "raw",
							"raw": ""
						},
						"description": ""
					},
					"response": []
				},
				{
					"name": "DOWNVOTE a post by ID",
					"request": {
						"url": "http://localhost:3000/posts/ID_POST/downvote",
						"method": "PUT",
						"header": [
							{
								"key": "token",
								"value": "",
								"description": ""
							}
						],
						"body": {
							"mode": "raw",
							"raw": ""
						},
						"description": ""
					},
					"response": []
				}
			]
		},
		{
			"name": "Users Action (Token needed)",
			"description": "",
			"item": [
				{
					"name": "GET User's profil by ID",
					"request": {
						"url": "http://localhost:3000/users/profil/ID_USER",
						"method": "GET",
						"header": [
							{
								"key": "token",
								"value": "",
								"description": ""
							}
						],
						"body": {
							"mode": "raw",
							"raw": ""
						},
						"description": ""
					},
					"response": []
				},
				{
					"name": "SEARCH Users",
					"request": {
						"url": "http://localhost:3000/users/search",
						"method": "POST",
						"header": [
							{
								"key": "token",
								"value": "",
								"description": ""
							},
							{
								"key": "Content-Type",
								"value": "application/x-www-form-urlencoded",
								"description": ""
							}
						],
						"body": {
							"mode": "urlencoded",
							"urlencoded": [
								{
									"key": "search",
									"value": "",
									"type": "text",
									"enabled": true,
									"warning": ""
								}
							]
						},
						"description": ""
					},
					"response": []
				},
				{
					"name": "POST set profil pic",
					"request": {
						"url": "http://localhost:3000/users/set-profil",
						"method": "POST",
						"header": [
							{
								"key": "token",
								"value": "",
								"description": ""
							},
							{
								"key": "//Content-Type",
								"value": "",
								"description": "",
								"disabled": true
							}
						],
						"body": {
							"mode": "formdata",
							"formdata": [
								{
									"key": "profil",
									"value": "",
									"type": "file",
									"enabled": true
								}
							]
						},
						"description": ""
					},
					"response": []
				},
				{
					"name": "POST set couv picture",
					"request": {
						"url": "http://localhost:3000/users/set-couv",
						"method": "POST",
						"header": [
							{
								"key": "token",
								"value": "",
								"description": ""
							}
						],
						"body": {
							"mode": "formdata",
							"formdata": [
								{
									"key": "couv",
									"value": "",
									"type": "file",
									"enabled": true
								}
							]
						},
						"description": ""
					},
					"response": []
				},
				{
					"name": "DELETE profil pic",
					"request": {
						"url": "http://localhost:3000/users/remove-profil",
						"method": "DELETE",
						"header": [
							{
								"key": "token",
								"value": "",
								"description": ""
							}
						],
						"body": {},
						"description": ""
					},
					"response": []
				},
				{
					"name": "DELETE couv pic",
					"request": {
						"url": "http://localhost:3000/users/remove-couv",
						"method": "DELETE",
						"header": [
							{
								"key": "token",
								"value": "",
								"description": ""
							}
						],
						"body": {},
						"description": ""
					},
					"response": []
				}
			]
		}
	]
}